[
  {
    "outputFileName": "wwwroot/src/js/admin/admin.min.js",
    "inputFiles": [
      "wwwroot/src/js/AdminManageUsers.js"
    ],
    "minify": {
      "enabled": true,
      "renameLocals": true
    }
  }
]


//don't think this file is necessary